Tema 3.1
…
- `read_excel()` - ficheros xls o xlsx 
- ...
]

---
## Lectura de datos

``` r
red_wine_data <- read_csv2("data/red_qualities.csv")
red_wine_data
```

```
## # A tibble: 1,599 × 12
##    `fixed acidity` `volatile acidity` `citric acid` `residual sugar` chlorides
##              <dbl> <chr>              <chr>                    <dbl> <chr>    
##  1              74 0.7                0                           19 0.076    
##  2              78 0.88               0                           26 0.098    
##  3              78 0.76               0.04                        23 0.092    
##  4             112 0.28               0.56                        19 0.075    
##  5              74 0.7                0                           19 0.076    
##  6              74 0.66               0                           18 0.075    
##  7              79 0.6                0.06                        16 0.069    
##  8              73 0.65               0                           12 0.065    
##  9              78 0.58               0.02                         2 0.073    
## 10              75 0.5                0.36                        61 0.071    
## # ℹ 1,589 more rows
## # ℹ 7 more variables: `free sulfur dioxide` <dbl>,
## #   `total sulfur dioxide` <dbl>, density <chr>, pH <dbl>, sulphates <chr>,
## #   alcohol <dbl>, quality <dbl>
```
…
